
{"totalCont":"30",
"result":[{
	"id": 1,
	"name": "张三1",
	"sex": "1",
	"position":"经理",
	"dipartment":"0",
	"roadRange":"第一站到第二站",
	"equipmentType":"0",
	"equipmentNo":"201411111",
	"phone":"13111111111"
},
{
	"id": 2,
	"name": "北京2",
	"sex": "0",
	"position":"经理",
	"dipartment":"0",
	"roadRange":"第一站到第二站",
	"equipmentType":"0",
	"equipmentNo":"201411111",
	"phone":"13111111111"
},
{
	"id": 3,
	"name": "兰州3",
	"sex": "0",
	"position":"经理",
	"dipartment":"0",
	"roadRange":"第一站到第二站",
	"equipmentType":"0",
	"equipmentNo":"201411111",
	"phone":"13199991111"
},
{
	"id": 4,
	"name": "张三",
	"sex": "1",
	"position":"经理",
	"dipartment":"0",
	"roadRange":"第一站到第二站",
	"equipmentType":"0",
	"equipmentNo":"201411111",
	"phone":"13111111111"
},
{
	"id": 5,
	"name": "张三",
	"sex": "1",
	"position":"经理",
	"dipartment":"0",
	"roadRange":"第一站到第二站",
	"equipmentType":"0",
	"equipmentNo":"201411111",
	"phone":"13111111111"
},
{
	"id": 6,
	"name": "张三",
	"sex": "0",
	"position":"经理",
	"dipartment":"0",
	"roadRange":"第一站到第二站",
	"equipmentType":"0",
	"equipmentNo":"201411111",
	"phone":"13111111111"
},
{
	"id": 7,
	"name": "张三",
	"sex": "1",
	"position":"经理",
	"dipartment":"0",
	"roadRange":"第一站到第二站",
	"equipmentType":"0",
	"equipmentNo":"201411111",
	"phone":"13111111111"
},
{
	"id": 8,
	"name": "张三",
	"sex": "1",
	"position":"经理",
	"dipartment":"0",
	"roadRange":"第一站到第二站",
	"equipmentType":"0",
	"equipmentNo":"201411111",
	"phone":"13111111111"
},
{
	"id": 9,
	"name": "张三",
	"sex": "0",
	"position":"经理",
	"dipartment":"0",
	"roadRange":"第一站到第二站",
	"equipmentType":"0",
	"equipmentNo":"201411111",
	"phone":"13111111111"
},
{
	"id": 10,
	"name": "张三",
	"sex": "1",
	"position":"经理",
	"dipartment":"0",
	"roadRange":"第一站到第二站",
	"equipmentType":"0",
	"equipmentNo":"201411111",
	"phone":"13111111111"
},
{
	"id": 11,
	"name": "张三",
	"sex": "1",
	"position":"经理",
	"dipartment":"0",
	"roadRange":"第一站到第二站",
	"equipmentType":"0",
	"equipmentNo":"201411111",
	"phone":"13111111111"
},
{
	"id": 12,
	"name": "兰州3",
	"sex": "0",
	"position":"经理",
	"dipartment":"0",
	"roadRange":"第一站到第二站",
	"equipmentType":"0",
	"equipmentNo":"201411111",
	"phone":"13111111111"
},
{
	"id": 13,
	"name": "张三",
	"sex": "1",
	"position":"经理",
	"dipartment":"0",
	"roadRange":"第一站到第二站",
	"equipmentType":"0",
	"equipmentNo":"201411111",
	"phone":"13111111111"
},
{
	"id": 14,
	"name": "张三",
	"sex": "1",
	"position":"经理",
	"dipartment":"0",
	"roadRange":"第一站到第二站",
	"equipmentType":"0",
	"equipmentNo":"201411111",
	"phone":"13111111111"
},
{
	"id": 15,
	"name": "张三",
	"sex": "0",
	"position":"经理",
	"dipartment":"0",
	"roadRange":"第一站到第二站",
	"equipmentType":"0",
	"equipmentNo":"201411111",
	"phone":"13111111111"
},
{
	"id": 16,
	"name": "张三",
	"sex": "1",
	"position":"经理",
	"dipartment":"0",
	"roadRange":"第一站到第二站",
	"equipmentType":"0",
	"equipmentNo":"201411111",
	"phone":"13111111111"
},
{
	"id": 17,
	"name": "张三",
	"sex": "1",
	"position":"经理",
	"dipartment":"0",
	"roadRange":"第一站到第二站",
	"equipmentType":"0",
	"equipmentNo":"201411111",
	"phone":"13111111111"
},
{
	"id": 18,
	"name": "张三",
	"sex": "0",
	"position":"经理",
	"dipartment":"0",
	"roadRange":"第一站到第二站",
	"equipmentType":"0",
	"equipmentNo":"201411111",
	"phone":"13111111111"
},
{
	"id": 19,
	"name": "张三",
	"sex": "1",
	"position":"1",
	"dipartment":"0",
	"roadRange":"第一站到第二站",
	"equipmentType":"0",
	"equipmentNo":"201411111",
	"phone":"13111111111"
},
{
	"id": 20,
	"name": "张三",
	"sex": "1",
	"position":"经理",
	"dipartment":"0",
	"roadRange":"第一站到第二站",
	"equipmentType":"0",
	"equipmentNo":"201411111",
	"phone":"13111111111"
}
]

}